{
    "id": "testHorizontalArrangerView",
    "defaultFocusId": "horizontalArrangerBox",
    "rootWidget": {
        "id": "horizontalArrangerBox",
        "type": "box",
        "layout": {
            "arrangementData": {},
            "padding": {"top": "20px", "bottom": "20px", "left": "20px", "right": "20px"}
        },
        "children": [
            {
                "id": "rectangleRed",
                "type": "rectangle",
                "layout": {
                    "arrangementData": {"fill": "20%", "horizontalAlignment": "right"},
                    "scaleBehavior": "stretch_both"
                },
                "properties": {
                    "backgroundColor": "0xFF0000"
                }
            },
            {
                "id": "rectangleGreen",
                "type": "rectangle",
                "layout": {
                    "arrangementData": {"fill": "20%", "minFill": 50, "maxFill": 100, "horizontalAlignment": "center"},
                    "scaleBehavior": "stretch_both"
                },
                "properties": {
                    "backgroundColor": "0x00FF00"
                }
            },
            {
                "id": "rectangleBlue",
                "type": "rectangle",
                "layout": {
                    "arrangementData": {"fill": "20%", "minFill": 0, "maxFill": 0, "horizontalAlignment": "left"},
                    "scaleBehavior": "stretch_both"
                },
                "properties": {
                    "backgroundColor": "0x0000FF"
                }
            }
        ],
        "properties": {
            "arrangerType": "horizontal"
        }
    }
}
