{
    "id": "testLabelView",
    "defaultFocusId": "myLabel",
    "rootWidget": {
        "id": "myBox",
        "type": "box",
        "layout": {
            "arrangementData": {}
        },
        "children": [
            {
                "id": "myLabel",
                "type": "label",
                "layout": {
                    "arrangementData": {},
                    "padding": {"top": "40px", "left": "40px", "right": "40px", "bottom": "40px"},
                    "externalAlignment": {
                        "vertical": "center",
                        "horizontal": "center"
                    }
                },
                "properties": {
                    "text": "fixed font size",
                    "fontName": "linux_libertine_regular.ttf",
					"fontSize": 20,
                    "backgroundColor": "0x000000",
                    "textColor": "0xFFFFFF"
                }
            }
        ],
        "properties": {
            "arrangerType": "grid",
            "arrangerData": {
                "gridWidth": 1,
                "gridHeight": 1
            }
        }
    }
}
