{
    "id": "testColorView",
    "defaultFocusId": "rectangle",
    "rootWidget": {
        "id": "box",
        "type": "box",
        "layout": {
            "arrangementData": {}
        },
        "children": [
            {
                "id": "rectangle",
                "type": "rectangle",
                "layout": {
                    "arrangementData": {"gridX": 1, "gridY": 1},
                    "scaleBehavior": "stretch_both"
                },
                "properties": {
                    "backgroundColor": "0x00FF0000"
                }
            },
            {
                "id": "colorChannelLabel",
                "type": "label",
                "layout": {
                    "arrangementData": {"gridX": 0, "gridY": 2},
                    "scaleBehavior": "stretch_both"
                },
                "properties": {
                    "fontSize": 12,
                    "backgroundColor": "0x000000",
                    "textColor": "0xFFFFFF",
                    "fontName": "linux_libertine_regular.ttf",
                    "text": ""
                }
            },
            {
                "id": "colorValueLabel",
                "type": "label",
                "layout": {
                    "arrangementData": {"gridX": 2, "gridY": 2},
                    "scaleBehavior": "stretch_both"
                },
                "properties": {
                    "fontSize": 12,
                    "backgroundColor": "0x000000",
                    "textColor": "0xFFFFFF",
                    "fontName": "linux_libertine_regular.ttf",
                    "text": ""
                }
            }
        ],
        "properties": {
            "arrangerType": "grid",
            "arrangerData": {
                "gridWidth": 3,
                "gridHeight": 3
            }
        }
    }
}
